<?xml version="1.0" standalone="no"?>
<!DOCTYPE svg PUBLIC "-//W3C//DTD SVG 20010904//EN"
 "http://www.w3.org/TR/2001/REC-SVG-20010904/DTD/svg10.dtd">
<svg version="1.0" xmlns="http://www.w3.org/2000/svg"
 width="32.000000pt" height="37.000000pt" viewBox="0 0 32.000000 37.000000"
 preserveAspectRatio="xMidYMid meet">

<g transform="translate(0.000000,37.000000) scale(0.100000,-0.100000)"
fill="#000000" stroke="none">
<path d="M34 327 c-2 -7 -3 -65 -2 -128 l3 -114 30 -3 c17 -2 44 -17 63 -35
l32 -31 33 31 c18 18 45 33 62 35 l30 3 0 125 0 125 -123 3 c-95 2 -124 0
-128 -11z m99 -54 c-33 -6 -28 -23 7 -23 17 0 30 5 30 10 0 6 10 10 23 10 20
-1 20 -2 5 -11 -28 -16 -23 -45 8 -44 33 0 53 -28 38 -52 -17 -28 -44 -27 -71
1 -29 31 -39 33 -46 6 -3 -11 -13 -23 -22 -27 -45 -17 -71 53 -27 72 15 7 22
18 22 37 0 24 4 28 28 27 23 -2 24 -2 5 -6z m77 -143 c38 0 50 4 53 18 4 13 5
11 6 -5 1 -21 -3 -23 -59 -23 -56 0 -60 2 -59 23 1 16 2 18 6 5 3 -14 15 -18
53 -18z"/>
<path d="M125 220 c10 -11 24 -20 32 -20 7 0 13 9 13 20 0 16 -7 20 -32 20
-30 0 -31 0 -13 -20z"/>
<path d="M70 194 c-11 -12 -10 -18 3 -32 16 -15 18 -15 34 0 13 14 14 20 3 32
-7 9 -16 16 -20 16 -4 0 -13 -7 -20 -16z m30 -4 c0 -5 -5 -10 -11 -10 -5 0 -7
5 -4 10 3 6 8 10 11 10 2 0 4 -4 4 -10z"/>
<path d="M195 199 c-4 -6 -1 -9 6 -7 8 1 14 -2 15 -7 0 -6 -9 -9 -20 -7 -20 3
-20 3 -3 -14 16 -17 18 -17 34 -2 13 14 14 20 3 32 -15 19 -26 20 -35 5z"/>
</g>
</svg>
