<?xml version="1.0" standalone="no"?>
<!DOCTYPE svg PUBLIC "-//W3C//DTD SVG 20010904//EN"
 "http://www.w3.org/TR/2001/REC-SVG-20010904/DTD/svg10.dtd">
<svg version="1.0" xmlns="http://www.w3.org/2000/svg"
 width="32.000000pt" height="37.000000pt" viewBox="0 0 32.000000 37.000000"
 preserveAspectRatio="xMidYMid meet">

<g transform="translate(0.000000,37.000000) scale(0.100000,-0.100000)"
fill="#000000" stroke="none">
<path d="M34 327 c-2 -7 -3 -65 -2 -128 l3 -114 30 -3 c17 -2 44 -17 63 -35
l32 -31 33 31 c18 18 45 33 62 35 l30 3 0 125 0 125 -123 3 c-95 2 -124 0
-128 -11z m236 -36 c0 -5 -22 -17 -50 -26 -36 -12 -50 -22 -50 -35 0 -14 9
-20 33 -22 31 -3 32 -5 35 -50 l3 -48 -75 0 -76 0 0 50 0 50 35 0 c28 0 35 4
35 19 0 20 -1 20 -55 1 -30 -10 -55 -15 -55 -11 0 5 14 11 32 15 17 3 39 13
49 22 9 8 38 17 65 20 26 2 53 9 58 14 12 12 16 13 16 1z"/>
<path d="M110 165 c0 -8 7 -15 15 -15 8 0 15 7 15 15 0 8 -7 15 -15 15 -8 0
-15 -7 -15 -15z"/>
<path d="M150 165 c0 -8 7 -15 15 -15 8 0 15 7 15 15 0 8 -7 15 -15 15 -8 0
-15 -7 -15 -15z"/>
<path d="M190 165 c0 -8 7 -15 15 -15 8 0 15 7 15 15 0 8 -7 15 -15 15 -8 0
-15 -7 -15 -15z"/>
</g>
</svg>
