<?xml version="1.0" standalone="no"?>
<!DOCTYPE svg PUBLIC "-//W3C//DTD SVG 20010904//EN"
 "http://www.w3.org/TR/2001/REC-SVG-20010904/DTD/svg10.dtd">
<svg version="1.0" xmlns="http://www.w3.org/2000/svg"
 width="32.000000pt" height="37.000000pt" viewBox="0 0 32.000000 37.000000"
 preserveAspectRatio="xMidYMid meet">

<g transform="translate(0.000000,37.000000) scale(0.100000,-0.100000)"
fill="#000000" stroke="none">
<path d="M34 327 c-2 -7 -3 -65 -2 -128 l3 -114 30 -3 c17 -2 44 -17 63 -35
l32 -31 33 31 c18 18 45 33 62 35 l30 3 0 125 0 125 -123 3 c-95 2 -124 0
-128 -11z m117 -44 c2 -24 2 -25 6 -5 4 18 11 22 39 22 27 0 34 -4 34 -20 0
-11 5 -20 10 -20 6 0 10 -11 10 -25 0 -25 -14 -33 -25 -15 -4 6 -13 5 -25 -2
-15 -10 -22 -10 -31 -1 -9 9 -16 9 -30 0 -16 -10 -23 -7 -46 16 -22 22 -24 27
-10 27 11 0 17 8 17 25 0 20 5 25 25 25 20 0 25 -5 26 -27z m-10 -76 c9 9 16
9 29 0 14 -8 22 -8 32 0 10 8 18 8 32 -3 11 -8 15 -14 9 -14 -7 0 -15 5 -18
10 -5 8 -12 7 -22 -1 -11 -10 -19 -10 -33 -2 -13 9 -20 9 -29 0 -9 -9 -16 -9
-31 1 -12 7 -21 8 -25 2 -3 -6 -11 -10 -18 -10 -6 0 -2 6 8 14 14 10 23 11 37
3 13 -9 21 -8 29 0z m10 -40 c9 9 16 9 29 0 14 -8 22 -8 32 0 10 8 18 8 32 -3
11 -8 15 -14 9 -14 -7 0 -15 5 -18 10 -5 8 -12 7 -22 -1 -11 -10 -19 -10 -33
-2 -13 9 -20 9 -29 0 -9 -9 -16 -9 -31 1 -12 7 -21 8 -25 2 -3 -6 -11 -10 -18
-10 -6 0 -2 6 8 14 14 10 23 11 37 3 13 -9 21 -8 29 0z m-10 -40 c9 9 16 9 29
0 14 -8 22 -8 32 0 10 8 18 8 32 -3 11 -8 15 -14 9 -14 -7 0 -15 5 -18 10 -5
8 -12 7 -22 -1 -11 -10 -19 -10 -33 -2 -13 9 -20 9 -29 0 -9 -9 -16 -9 -31 1
-12 7 -21 8 -25 2 -3 -6 -11 -10 -18 -10 -6 0 -2 6 8 14 14 10 23 11 37 3 13
-9 21 -8 29 0z"/>
<path d="M110 290 c0 -5 5 -10 10 -10 6 0 10 5 10 10 0 6 -4 10 -10 10 -5 0
-10 -4 -10 -10z"/>
</g>
</svg>
