<?xml version="1.0" encoding="UTF-8" standalone="no"?>
<svg
   xmlns:dc="http://purl.org/dc/elements/1.1/"
   xmlns:cc="http://creativecommons.org/ns#"
   xmlns:rdf="http://www.w3.org/1999/02/22-rdf-syntax-ns#"
   xmlns:svg="http://www.w3.org/2000/svg"
   xmlns="http://www.w3.org/2000/svg"
   xmlns:sodipodi="http://sodipodi.sourceforge.net/DTD/sodipodi-0.dtd"
   xmlns:inkscape="http://www.inkscape.org/namespaces/inkscape"
   viewBox="0 0 72 72"
   version="1.1"
   id="svg16"
   sodipodi:docname="icon_mapmatching.svg"
   inkscape:version="0.92.5 (2060ec1f9f, 2020-04-08)">
  <metadata
     id="metadata20">
    <rdf:RDF>
      <cc:Work
         rdf:about="">
        <dc:format>image/svg+xml</dc:format>
        <dc:type
           rdf:resource="http://purl.org/dc/dcmitype/StillImage" />
      </cc:Work>
    </rdf:RDF>
  </metadata>
  <sodipodi:namedview
     pagecolor="#ffffff"
     bordercolor="#666666"
     borderopacity="1"
     objecttolerance="10"
     gridtolerance="10"
     guidetolerance="10"
     inkscape:pageopacity="0"
     inkscape:pageshadow="2"
     inkscape:window-width="1920"
     inkscape:window-height="1017"
     id="namedview18"
     showgrid="false"
     inkscape:zoom="3.2777778"
     inkscape:cx="-19.677966"
     inkscape:cy="36"
     inkscape:window-x="1358"
     inkscape:window-y="-8"
     inkscape:window-maximized="1"
     inkscape:current-layer="svg16" />
  <defs
     id="defs4">
    <style
       id="style2">.cls-1{fill:#fff;opacity:0;}.cls-2{fill:#0f1621;}.cls-3{fill:#00b6b2;}</style>
  </defs>
  <title
     id="title6">lui-icon-routematch-onlight-outline-xlarge</title>
  <g
     id="Layer_2"
     data-name="Layer 2"
     inkscape:export-xdpi="96"
     inkscape:export-ydpi="96">
    <g
       id="lui-icon-routematch-onlight-outline-xlarge">
      <rect
         class="cls-1"
         width="72"
         height="72"
         id="rect8"
         x="0"
         y="0"
         style="opacity:0;fill:#ffffff" />
      <path
         class="cls-2"
         d="M 68,4 V 41 A 21,21 0 0 1 26,41 V 31 a 3,3 0 0 0 -6,0 V 64 H 18 V 31 a 5,5 0 0 1 10,0 v 10 a 19,19 0 0 0 38,0 V 4 Z M 42,31 v 10 a 5,5 0 0 0 10,0 V 4 h -2 v 37 a 3,3 0 0 1 -6,0 V 31 A 21,21 0 0 0 2,31 V 63 H 4 V 31 a 19,19 0 0 1 38,0 z"
         id="path10"
         inkscape:connector-curvature="0"
         style="fill:#0f1621" />
      <path
         class="cls-3"
         d="m 14.6,59.29 0.41,3.6 -2,0.22 -0.4,-3.59 z M 34.89,27 a 13.6,13.6 0 0 0 -0.25,-1.42 l -2,0.46 a 9.74,9.74 0 0 1 0.22,1.2 l 0.57,4.64 2,-0.25 z M 14,18.28 l 1.23,1.57 a 11,11 0 0 1 5,-2.17 l -0.32,-2 A 13,13 0 0 0 14,18.28 Z m 8,-0.75 a 11,11 0 0 1 5.27,1.37 l 1,-1.75 a 13.09,13.09 0 0 0 -6.23,-1.62 z m 8,0.82 -1.25,1.57 a 11.15,11.15 0 0 1 3.3,4.33 L 34,23.47 A 13.13,13.13 0 0 0 30.08,18.35 Z M 11,29.88 a 12.4,12.4 0 0 1 0,-1.36 c 0,-0.28 0,-0.55 0,-0.82 L 9,27.55 c 0,0.32 0,0.64 0,1 a 12.28,12.28 0 0 0 0.1,1.6 l 0.44,3.59 2,-0.24 z m 24.64,3.69 -2,0.24 0.74,6 2,-0.25 z M 13.89,21.1 12.41,19.75 a 13,13 0 0 0 -3,5.66 l 1.94,0.48 a 10.93,10.93 0 0 1 2.54,-4.79 z m -2.13,14.35 -2,0.25 0.74,5.95 2,-0.24 z m 1.94,15.89 -2,0.23 0.68,6 2,-0.22 z m -1,-8 -2,0.25 0.73,6 2,-0.24 z m 24.35,1.42 -0.4,-3.3 -2,0.24 0.41,3.3 a 13.36,13.36 0 0 0 0.66,2.81 l 1.89,-0.67 A 10.86,10.86 0 0 1 37.09,44.81 Z M 61,27 v -6 h -2 v 6 z m -2,16 h 2 v -6 h -2 z m 0,-14 v 6 h 2 v -6 z m 0,-16 v 6 h 2 v -6 z m -2.11,37 1.62,1.18 a 13,13 0 0 0 2.39,-6 l -2,-0.26 A 11,11 0 0 1 56.89,50 Z m -18.47,-1.1 -1.75,1 a 13,13 0 0 0 4.44,4.65 l 1.06,-1.69 a 11,11 0 0 1 -3.75,-4.01 z m 5.38,4.78 -0.8,1.8 a 13,13 0 0 0 5,1 13.33,13.33 0 0 0 1.41,-0.08 l -0.21,-2 a 10.89,10.89 0 0 1 -5.4,-0.77 z m 7.18,0.43 0.54,1.89 a 12.91,12.91 0 0 0 5.57,-3.21 l -1.4,-1.43 A 11.06,11.06 0 0 1 51,54.06 Z m 9.07,-46.52 -5.13,5.13 1.41,1.41 3.72,-3.72 3.72,3.72 1.41,-1.41 z"
         id="path12"
         inkscape:connector-curvature="0"
         style="fill:#00b6b2" />
    </g>
  </g>
  <path
     style="fill:#000000;stroke-width:0.30508474"
     d="m 31.771625,23.311109 c -0.183872,-0.403554 -0.910252,-1.358556 -1.61418,-2.122227 l -1.279868,-1.388493 0.685914,-0.671381 0.685915,-0.671381 1.163266,1.335956 c 0.639796,0.734776 1.454205,1.853612 1.809797,2.486304 l 0.646532,1.150347 -0.881533,0.307304 c -0.782537,0.272794 -0.919075,0.224906 -1.215843,-0.426429 z"
     id="path22"
     inkscape:connector-curvature="0"
     inkscape:export-xdpi="96"
     inkscape:export-ydpi="96" />
  <path
     style="fill:#000000;stroke-width:0.30508474"
     d="m 33.452992,30.737288 c -0.09583,-0.545339 -0.26737,-1.860526 -0.381198,-2.922638 l -0.206961,-1.931112 0.881143,0.100604 c 0.865408,0.09881 0.88678,0.146911 1.196813,2.693824 0.32566,2.675293 0.22897,3.036415 -0.815616,3.046176 -0.326426,0.003 -0.560418,-0.339462 -0.674181,-0.986854 z"
     id="path24"
     inkscape:connector-curvature="0"
     inkscape:export-xdpi="96"
     inkscape:export-ydpi="96" />
  <path
     style="fill:#000000;stroke-width:0.30508474"
     d=""
     id="path26"
     inkscape:connector-curvature="0"
     inkscape:export-xdpi="96"
     inkscape:export-ydpi="96" />
  <path
     style="fill:#000000;stroke-width:0.30508474"
     d="m 35.428573,45.991525 c -0.788593,-4.079713 -0.787252,-4.105357 0.22246,-4.253551 0.907893,-0.133251 0.91331,-0.125102 1.124096,1.691051 0.116495,1.00372 0.325205,2.220338 0.463801,2.703596 0.220331,0.768249 0.155833,0.915209 -0.513329,1.169624 -0.420928,0.160037 -0.815296,0.290975 -0.876374,0.290975 -0.06108,0 -0.250373,-0.720762 -0.420654,-1.601695 z"
     id="path28"
     inkscape:connector-curvature="0"
     inkscape:export-xdpi="96"
     inkscape:export-ydpi="96" />
  <path
     style="fill:#000000;stroke-width:0.30508474;stroke:#000000;stroke-opacity:1"
     d="m 34.363393,38.364407 c -0.09926,-0.713136 -0.269819,-2.017373 -0.37903,-2.898305 l -0.198565,-1.601695 h 0.905369 0.905368 l 0.300286,2.669491 c 0.310012,2.755959 0.212539,3.11247 -0.853706,3.122447 -0.356799,0.0033 -0.550752,-0.365304 -0.679722,-1.291938 z"
     id="path30"
     inkscape:connector-curvature="0"
     inkscape:export-xdpi="96"
     inkscape:export-ydpi="96" />
  <path
     style="fill:#000000;stroke:#000000;stroke-width:0.30508474;stroke-opacity:1"
     d="m 30.704858,21.75957 c -1.352547,-1.821204 -1.43945,-2.037084 -0.997814,-2.478721 0.441637,-0.441637 0.551254,-0.420372 1.258617,0.244161 0.426165,0.400361 1.206374,1.400408 1.733798,2.222326 0.784225,1.22211 0.880439,1.544096 0.528051,1.767164 -0.744463,0.471258 -1.002816,0.291531 -2.522652,-1.75493 z"
     id="path4543"
     inkscape:connector-curvature="0"
     inkscape:export-xdpi="96"
     inkscape:export-ydpi="96" />
  <path
     style="fill:#000000;stroke:#000000;stroke-width:0.30508474;stroke-opacity:1"
     d="m 26.237288,18.305386 c -0.251695,-0.162492 -1.247034,-0.452828 -2.211864,-0.645191 -1.648849,-0.328739 -1.754238,-0.402568 -1.754238,-1.228917 0,-0.862083 0.0252,-0.875307 1.296611,-0.68053 0.713135,0.10925 2.011018,0.461579 2.884184,0.782954 1.514893,0.557566 1.572011,0.618474 1.247639,1.330392 -0.364334,0.799626 -0.734333,0.911282 -1.462332,0.441292 z"
     id="path4545"
     inkscape:connector-curvature="0"
     inkscape:export-xdpi="96"
     inkscape:export-ydpi="96" />
  <path
     style="fill:#000000;stroke:#000000;stroke-width:0.30508474;stroke-opacity:1"
     d=""
     id="path4547"
     inkscape:connector-curvature="0"
     inkscape:export-xdpi="96"
     inkscape:export-ydpi="96" />
  <path
     style="fill:#000000;stroke:#000000;stroke-width:0.30508474;stroke-opacity:1"
     d="M 55.675118,13.420582 C 55.10444,12.78999 55.117878,12.768101 57.59863,10.287349 l 2.498205,-2.4982051 2.442447,2.4281221 c 2.440842,2.426526 2.442047,2.428523 1.833479,3.037091 -0.608567,0.608568 -0.610172,0.607777 -2.440389,-1.203343 l -1.831421,-1.812311 -1.92557,1.908454 -1.925569,1.908454 z"
     id="path4549"
     inkscape:connector-curvature="0"
     inkscape:export-xdpi="96"
     inkscape:export-ydpi="96" />
  <path
     style="fill:#000000;stroke:#000000;stroke-width:0.30508474;stroke-opacity:1"
     d="m 59.186441,16.016949 v -2.898305 h 0.915254 0.915254 v 2.898305 2.898305 h -0.915254 -0.915254 z"
     id="path4551"
     inkscape:connector-curvature="0"
     inkscape:export-xdpi="96"
     inkscape:export-ydpi="96" />
  <path
     style="fill:#000000;stroke:#000000;stroke-width:0.30508474;stroke-opacity:1"
     d="m 59.186441,23.949153 v -2.898306 h 0.915254 0.915254 v 2.898306 2.898305 h -0.915254 -0.915254 z"
     id="path4553"
     inkscape:connector-curvature="0"
     inkscape:export-xdpi="96"
     inkscape:export-ydpi="96" />
  <path
     style="fill:#000000;stroke:#000000;stroke-width:0.30508474;stroke-opacity:1"
     d="m 59.186441,31.861092 v -2.91857 l 0.838983,0.09654 0.838983,0.09653 0.08772,2.822034 0.08772,2.822034 h -0.926703 -0.926702 z"
     id="path4555"
     inkscape:connector-curvature="0"
     inkscape:export-xdpi="96"
     inkscape:export-ydpi="96" />
  <path
     style="fill:#000000;stroke:#000000;stroke-width:0.30508474;stroke-opacity:1"
     d=""
     id="path4557"
     inkscape:connector-curvature="0"
     inkscape:export-xdpi="96"
     inkscape:export-ydpi="96" />
  <path
     style="fill:#000000;stroke:#000000;stroke-width:0.30508474;stroke-opacity:1"
     d="m 57.75011,50.489082 -0.673349,-0.471633 0.741566,-1.394694 c 0.407861,-0.767081 0.829174,-1.861685 0.93625,-2.432453 0.170044,-0.906413 0.310527,-1.03776 1.10994,-1.03776 0.882767,0 0.908061,0.03834 0.712613,1.08017 -0.229787,1.224866 -1.127248,3.382796 -1.741883,4.188323 -0.375839,0.492567 -0.470568,0.498508 -1.085137,0.06805 z"
     id="path4559"
     inkscape:connector-curvature="0"
     inkscape:export-xdpi="96"
     inkscape:export-ydpi="96" />
  <path
     style="fill:#000000;stroke:#000000;stroke-width:0.30508474;stroke-opacity:1"
     d="m 59.186441,40.138908 v -2.918569 h 0.926702 0.926703 l -0.08772,2.822034 -0.08772,2.822034 -0.838983,0.09654 -0.838983,0.09654 z"
     id="path4561"
     inkscape:connector-curvature="0"
     inkscape:export-xdpi="96"
     inkscape:export-ydpi="96" />
  <path
     style="fill:#000000;stroke:#000000;stroke-width:0.30508474;stroke-opacity:1"
     d="m 51.43942,55.347929 c -0.361579,-0.942261 -0.172355,-1.304842 0.858527,-1.645064 0.574041,-0.189451 1.590379,-0.74046 2.258529,-1.224466 l 1.214819,-0.88001 0.56187,0.620859 c 0.550066,0.607817 0.542677,0.636379 -0.351749,1.359605 -0.787372,0.636663 -3.812731,2.251655 -4.218018,2.251655 -0.07634,0 -0.222127,-0.21716 -0.323978,-0.482579 z"
     id="path4563"
     inkscape:connector-curvature="0"
     inkscape:export-xdpi="96"
     inkscape:export-ydpi="96" />
  <path
     style="fill:#000000;stroke:#000000;stroke-width:0.30508474;stroke-opacity:1"
     d="m 45.219571,55.998709 c -1.920535,-0.465043 -2.014279,-0.540099 -1.742825,-1.395374 0.168369,-0.530486 0.372098,-0.627389 1.019381,-0.484866 0.444927,0.09797 1.667009,0.268529 2.715737,0.379027 1.846889,0.194597 1.90678,0.228269 1.90678,1.072044 0,0.807871 -0.08309,0.869254 -1.144068,0.845192 -0.629237,-0.01427 -1.868989,-0.201481 -2.755005,-0.416023 z"
     id="path4565"
     inkscape:connector-curvature="0"
     inkscape:export-xdpi="96"
     inkscape:export-ydpi="96" />
  <path
     style="fill:#000000;stroke:#000000;stroke-width:0.30508474;stroke-opacity:1"
     d="m 38.912989,52.413666 c -1.098754,-1.124179 -1.997735,-2.166125 -1.997735,-2.315436 0,-0.149311 0.308899,-0.408937 0.686441,-0.576947 0.608377,-0.270733 0.894924,-0.0857 2.519702,1.627086 1.798636,1.896059 1.823402,1.945559 1.311294,2.620908 l -0.521967,0.68835 z"
     id="path4567"
     inkscape:connector-curvature="0"
     inkscape:export-xdpi="96"
     inkscape:export-ydpi="96" />
  <path
     style="fill:#000000;stroke:#000000;stroke-width:0.30508474;stroke-opacity:1"
     d="m 14.623303,18.876455 c -0.404763,-0.756307 -0.299421,-0.85869 2.003816,-1.947524 2.187821,-1.034274 3.203389,-1.245074 3.203389,-0.664923 0,0.256162 0.08333,0.682909 0.185184,0.948328 0.127878,0.333247 0.0099,0.482654 -0.381356,0.48282 -0.311597,1.32e-4 -1.436917,0.411997 -2.500712,0.915254 -1.063795,0.503258 -1.98566,0.915014 -2.048588,0.915014 -0.06293,0 -0.270708,-0.292036 -0.461733,-0.648969 z"
     id="path4569"
     inkscape:connector-curvature="0"
     inkscape:export-xdpi="96"
     inkscape:export-ydpi="96" />
  <path
     style="fill:#000000;stroke:#000000;stroke-width:0.30508474;stroke-opacity:1"
     d="m 9.8424578,25.377776 c -0.2833158,-0.17994 -0.1235299,-0.770467 0.6385012,-2.359735 1.286685,-2.683471 1.813817,-3.170412 2.631256,-2.430639 0.584745,0.529187 0.583052,0.548197 -0.132791,1.491258 -0.398798,0.525381 -0.957389,1.538713 -1.241314,2.251848 -0.506279,1.271626 -1.060398,1.577753 -1.8956522,1.047268 z"
     id="path4571"
     inkscape:connector-curvature="0"
     inkscape:export-xdpi="96"
     inkscape:export-ydpi="96" />
  <path
     style="fill:#000000;stroke:#000000;stroke-width:0.30508474;stroke-opacity:1"
     d=""
     id="path4573"
     inkscape:connector-curvature="0"
     inkscape:export-xdpi="96"
     inkscape:export-ydpi="96" />
  <path
     style="fill:#000000;stroke:#000000;stroke-width:0.30508474;stroke-opacity:1"
     d=""
     id="path4575"
     inkscape:connector-curvature="0"
     inkscape:export-xdpi="96"
     inkscape:export-ydpi="96" />
  <path
     style="fill:#000000;stroke:#000000;stroke-width:0.30508474;stroke-opacity:1"
     d="M 9.6492161,33.317416 C 9.5669877,33.184368 9.4027175,31.88013 9.2841711,30.419111 L 9.0686322,27.762712 h 0.9572098 c 0.941596,0 0.957209,0.02419 0.957209,1.482843 0,0.815563 0.08731,2.1198 0.194011,2.898305 0.18749,1.367894 0.16759,1.415462 -0.592165,1.415462 -0.432396,0 -0.8534525,-0.108858 -0.9356809,-0.241906 z"
     id="path4577"
     inkscape:connector-curvature="0"
     inkscape:export-xdpi="96"
     inkscape:export-ydpi="96" />
  <path
     style="fill:#000000;stroke:#000000;stroke-width:0.30508474;stroke-opacity:1"
     d="m 10.654396,41.436473 c -0.01296,-0.05362 -0.193223,-1.367405 -0.400576,-2.919524 L 9.8768149,35.694915 h 0.8523901 c 1.011405,0 1.155976,0.404446 1.254119,3.508475 0.06343,2.006198 0.02593,2.1415 -0.618917,2.233083 -0.377543,0.05362 -0.697047,0.05362 -0.710011,0 z"
     id="path4579"
     inkscape:connector-curvature="0"
     inkscape:export-xdpi="96"
     inkscape:export-ydpi="96" />
  <path
     style="fill:#000000;stroke:#000000;stroke-width:0.30508474;stroke-opacity:1"
     d="m 11.493574,48.737288 c -0.09119,-0.377542 -0.261097,-1.68178 -0.377579,-2.898305 l -0.211784,-2.211864 h 0.769491 c 0.948917,0 1.037747,0.22539 1.307476,3.317513 l 0.216255,2.479097 H 12.4284 c -0.545001,0 -0.817331,-0.199971 -0.934826,-0.686441 z"
     id="path4581"
     inkscape:connector-curvature="0"
     inkscape:export-xdpi="96"
     inkscape:export-ydpi="96" />
  <path
     style="fill:#000000;stroke:#000000;stroke-width:0.30508474;stroke-opacity:1"
     d="m 12.391668,56.211864 c -0.09374,-0.629237 -0.258916,-1.933474 -0.367054,-2.898305 l -0.196615,-1.754237 h 0.914564 0.914563 l 0.207443,2.364407 c 0.114093,1.300424 0.276762,2.604661 0.361487,2.898305 0.122187,0.423482 -0.03395,0.533898 -0.754952,0.533898 -0.816706,0 -0.926302,-0.116157 -1.079436,-1.144068 z"
     id="path4583"
     inkscape:connector-curvature="0"
     inkscape:export-xdpi="96"
     inkscape:export-ydpi="96" />
  <path
     style="fill:#000000;stroke:#000000;stroke-width:0.30508474;stroke-opacity:1"
     d="m 13.004237,61.894068 c -0.396676,-1.98338 -0.270261,-2.402543 0.724577,-2.402543 0.861222,0 0.915254,0.07057 0.915254,1.195387 0,0.657463 0.08333,1.412548 0.185183,1.677967 0.143349,0.373561 -0.02034,0.482579 -0.724576,0.482579 -0.774863,0 -0.938033,-0.141367 -1.100438,-0.95339 z"
     id="path4585"
     inkscape:connector-curvature="0"
     inkscape:export-xdpi="96"
     inkscape:export-ydpi="96" />
</svg>
